Grouping – dataframes
…
Here we simply tag the tibble with the desired grouping. Our first attempt is to apply an anonymous function to each group using group_map.

tbl = read_flights(type = "tibble")
tbl = dplyr::group_by(tbl, origin, carrier) |>
  dplyr::group_map(
    function(grp, key){
      key |>
        dplyr::mutate(mean_dep_delay = mean(grp$dep_delay, na.rm = TRUE))
    }
  ) |>
  dplyr::bind_rows()
tbl

# A tibble: 35 × 3
   origin carrier mean_dep_delay
   <chr>  <chr>            <dbl>
 1 EWR    9E                5.95
 2 EWR    AA               10.0 
 3 EWR    AS                5.80
 4 EWR    B6               13.1 
 5 EWR    DL               12.1 
 6 EWR    EV               20.2 
 7 EWR    MQ               17.5 
 8 EWR    OO               20.8 
 9 EWR    UA               12.5 
10 EWR    US                3.74
# ℹ 25 more rows

But keep in mind that many of the dplyr functions are “group-aware”, so we could simplify…

tbl = read_flights(type = "tibble")

tbl = dplyr::group_by(tbl, origin, carrier) |>
  dplyr::mutate(mean_dep_delay = mean(.data$dep_delay, na.rm = TRUE)) |>
  dplyr::slice(1) |>
  dplyr::select(origin, carrier, mean_dep_delay) |>
  dplyr::ungroup()
tbl

# A tibble: 35 × 3
   origin carrier mean_dep_delay
   <chr>  <chr>            <dbl>
 1 EWR    9E                5.95
 2 EWR    AA               10.0 
 3 EWR    AS                5.80
 4 EWR    B6               13.1 
 5 EWR    DL               12.1 
 6 EWR    EV               20.2 
 7 EWR    MQ               17.5 
 8 EWR    OO               20.8 
 9 EWR    UA               12.5 
10 EWR    US                3.74
# ℹ 25 more rows
…
4 tidytable

This starts out quite similar to tibble, but you’ll note that there is no need to create an anonymous function to use within group_map(). Instead, the tidytable helper functions are “group-aware”.

tt = read_flights(type = "tidytable")
tt = tidytable::group_by(tt, origin, carrier) |>
  tidytable::mutate(mean_dep_delay = mean(.data$dep_delay, na.rm = TRUE)) |>
  tidytable::slice(1) |>
  tidytable::select(origin, carrier, mean_dep_delay) |>
  tidytable::ungroup()
tt

# A tidytable: 35 × 3
   origin carrier mean_dep_delay
   <chr>  <chr>            <dbl>
 1 EWR    UA               12.5 
 2 LGA    UA               12.1 
 3 JFK    AA               10.3 
 4 JFK    B6               12.8 
 5 LGA    DL                9.57
 6 EWR    B6               13.1 
 7 LGA    EV               19.1 
 8 LGA    AA                6.71
 9 JFK    UA                7.9 
10 LGA    B6               14.8 
# ℹ 25 more rows
…
tt = tidytable::group_by(tt, origin, carrier) |>
  tidytable::group_split() |>
  lapply(
    function(grp){
      tidytable::tidytable(
        origin = grp$origin[1],
        carrier = grp$carrier[1],
        mean_dep_delay = mean(grp$dep_delay, na.rm = TRUE)
      )
    }
  ) |>
  tidytable::bind_rows()
tt

# A tidytable: 35 × 3
   origin carrier mean_dep_delay
   <chr>  <chr>            <dbl>
 1 EWR    UA               12.5 
 2 LGA    UA               12.1 
 3 JFK    AA               10.3 
 4 JFK    B6               12.8 
 5 LGA    DL                9.57
 6 EWR    B6               13.1 
 7 LGA    EV               19.1 
 8 LGA    AA                6.71
 9 JFK    UA                7.90
10 LGA    B6               14.8 
# ℹ 25 more rows
…
