Spatial – dataframes
…
2 tibble

tbl = dplyr::as_tibble(buoys)
tbl = sf::st_as_sf(tbl, coords = c("LON", "LAT"), crs = 4326) 
tbl

Simple feature collection with 1329 features and 15 fields
Geometry type: POINT
Dimension:     XY
Bounding box:  xmin: -177.75 ymin: -55 xmax: 179.001 ymax: 71.758
Geodetic CRS:  WGS 84
# A tibble: 1,329 × 16
   ID       Y1    YN nYEARS lastMeasurement     STATION_LOC TTYPE TIMEZONE OWNER
 * <chr> <int> <int>  <int> <chr>               <chr>       <chr> <chr>    <chr>
 1 0Y2W3  2012  2015      4 2015-08-18T11:40:0… "Sturgeon … Weat… C        CG   
 2 18CI3  2014  2015      2 2015-09-21T13:25:0… "Michigan … Weat… E        CG   
 3 20CM4  2014  2015      2 2015-09-20T16:55:0… "St. Josep… Weat… E        CG   
 4 23020  2008  2010      3 2010-12-18T11:50:0… "Red Sea"   Buoy  ?        KA   
 5 31201  2005  2005      1 2005-08-19T15:00:0… "Floripa, … Wave… ?        R    
 6 32012  2007  2018     12 2018-04-09T11:50:0… "Woods Hol… 2.4-… C        WH   
 7 32301  1984  1986      3 1986-07-12T16:00:0… ""          3-me… C        N    
 8 32302  1986  1995     10 1995-04-03T12:00:0… ""          3-me… C        N    
 9 32487  2008  2010      3 2010-01-08T20:25:0… "Buenavent… Offs… E        DC   
10 32488  2008  2009      2 2009-10-16T02:10:0… "Bahia Sol… Offs… E        DC   
# ℹ 1,319 more rows
# ℹ 7 more variables: OWNERNAME <chr>, COUNTRY <chr>, HULL <chr>,
#   PAYLOAD <chr>, FORECAST <chr>, NOTE <chr>, geometry <POINT [°]>

3 tidytable

tt = tidytable::as_tidytable(buoys)
tt = sf::st_as_sf(tt, coords = c("LON", "LAT"), crs = 4326) 
tt

Simple feature collection with 1329 features and 15 fields
Geometry type: POINT
Dimension:     XY
Bounding box:  xmin: -177.75 ymin: -55 xmax: 179.001 ymax: 71.758
Geodetic CRS:  WGS 84
# A tidytable: 1,329 × 16
   ID       Y1    YN nYEARS lastMeasurement     STATION_LOC TTYPE TIMEZONE OWNER
 * <chr> <int> <int>  <int> <chr>               <chr>       <chr> <chr>    <chr>
 1 0Y2W3  2012  2015      4 2015-08-18T11:40:0… "Sturgeon … Weat… C        CG   
 2 18CI3  2014  2015      2 2015-09-21T13:25:0… "Michigan … Weat… E        CG   
 3 20CM4  2014  2015      2 2015-09-20T16:55:0… "St. Josep… Weat… E        CG   
 4 23020  2008  2010      3 2010-12-18T11:50:0… "Red Sea"   Buoy  ?        KA   
 5 31201  2005  2005      1 2005-08-19T15:00:0… "Floripa, … Wave… ?        R    
 6 32012  2007  2018     12 2018-04-09T11:50:0… "Woods Hol… 2.4-… C        WH   
 7 32301  1984  1986      3 1986-07-12T16:00:0… ""          3-me… C        N    
 8 32302  1986  1995     10 1995-04-03T12:00:0… ""          3-me… C        N    
 9 32487  2008  2010      3 2010-01-08T20:25:0… "Buenavent… Offs… E        DC   
10 32488  2008  2009      2 2009-10-16T02:10:0… "Bahia Sol… Offs… E        DC   
# ℹ 1,319 more rows
# ℹ 7 more variables: OWNERNAME <chr>, COUNTRY <chr>, HULL <chr>,
#   PAYLOAD <chr>, FORECAST <chr>, NOTE <chr>, geometry <POINT [°]>
…
